[gd_scene load_steps=2 format=2]

[ext_resource path="res://player/projectiles/moneybomb/moneybomb_explode.wav" type="AudioStream" id=1]

[node name="moneybomb_explode_sound" type="AudioStreamPlayer"]
stream = ExtResource( 1 )
volume_db = -15.731
pitch_scale = 0.83
autoplay = true
