[gd_scene load_steps=2 format=2]

[ext_resource path="res://gui/statusbars/healthbar.gd" type="Script" id=1]

[node name="healthbar" type="TextureProgress"]
margin_left = 56.0
margin_top = 12.0
margin_right = 281.0
margin_bottom = 52.0
script = ExtResource( 1 )
