[gd_scene load_steps=2 format=2]

[ext_resource path="res://player/projectiles/coin/coin_hit_sound.wav" type="AudioStream" id=1]

[node name="coin_hit_sound" type="AudioStreamPlayer"]
stream = ExtResource( 1 )
volume_db = -25.605
pitch_scale = 1.1
autoplay = true
